{
  "users": [
    {
      "id": "123-iuy-654",
      "firstName": "Homer",
      "lastName": "Simpson",
      "avatarUrl": "https://telegram.org.ru/uploads/posts/2017-03/1490196816_2.png",
      "phoneNumber": "911",
      "description": "Homer was born on May 12, 1956. He was raised on the Simpson farm by his parents until they were forced to move out due to Homer scaring the cows by jumping out of a bale of hay and scaring them into giving sour milk, causing the bank to foreclose it. At some point in his childhood, Homer began drinking alcohol, and accidentally caused a traffic jam in his Playschool car."
    },
    {
      "id": "145-iuy-654",
      "firstName": "Lisa",
      "lastName": "Simpson",
      "avatarUrl": "",
      "phoneNumber": "911",
      "description": ""
    },
    {
      "id": "145-iuл-654",
      "firstName": "Bart",
      "lastName": "Simpson",
      "avatarUrl": "https://tr.rbxcdn.com/627d1b9267d88f5237b2c8cc6cbe9b31/420/420/Decal/Png",
      "phoneNumber": "911",
      "description": "Bart is the mischievous, rebellious, misunderstood, disruptive and \"potentially dangerous\" eldest child. He is the only son of Homer and Marge Simpson, and the older brother of Lisa and Maggie. He also has been nicknamed \"Cosmo\", after discovering a comet in \"Bart's Comet\"."
    },
    {
      "id": "145-iuy-854",
      "firstName": "Abraham",
      "lastName": "Simpson",
      "avatarUrl": "https://lh3.googleusercontent.com/proxy/3FmHhVU4YvvqH7JAnnm2GzepJ5hvQbC6dakaxrXCY8udZBj4YU_11D65vUoX3BP92O-MRr4u-bsu1da2VcjzQZhqzGsUTsq_eX4",
      "phoneNumber": "102",
      "description": "Grampa Simpson is a World War II veteran and retired farmer who was later sent to the Springfield Retirement Castle by Homer. He is known for his long, rambling, often incoherent and irrelevant stories and senility."
    },
    {
      "id": "145-iuy-804",
      "firstName": "Ned",
      "lastName": "Flanders",
      "avatarUrl": "https://i.pinimg.com/originals/b7/e6/e5/b7e6e5f269f0659c4edda0056c79e2b7.png",
      "phoneNumber": "",
      "description": "He attended an all-boys school, where he played Blance DuBois in a production of A Streetcar Named Desire.\n\nNed's age is uncertain. In \"Hurricane Neddy\" he is shown as a child in a flashback 30 years earlier, but later, in \"Viva Ned Flanders\", he states that he is 60 years old. (He attributes his youthful appearance to \"clean living, chewing thoroughly, and a daily dose of vitamin church.\") Later still, in \"Walking Big & Tall\", he is once again shown as a child 30 years ago. In the latter appearance, he is shown to be around the same age as Homer and Marge, who are in the same scene as children."
    }
  ]
}
